
	<!-- Global site tag (gtag.js) - Google Analytics -->
	<script async src="https://www.googletagmanager.com/gtag/js?id=UA-41616448-2">
	</script>
	<script>
		// Firebase = G-XP6TYNJQM6
		window.dataLayer = window.dataLayer || [];
		function gtag(){dataLayer.push(arguments);}
		gtag('js', new Date());
		
		gtag('config', 'UA-41616448-2');
	</script>
	
