{
	"handball": [{
		"short":"center",
		"long": "center back"
	},
	{
		"short": "pivot",
		"long": "forward"
	},
	{
		"short": "back",
		"long": "left/right back"
	},
	{
		"short": "wing",
		"long": "left/right wing"
	},
	{
		"short": "keeper",
		"long": "goal keeper"
	}],
	"football":[{
		"short": "defender",
		"long": "defender"
	},{
		"short": "forward",
		"long": "center forward"
	},{
		"short": "wing",
		"long": "right/left forward"
	},{
		"short": "keeper",
		"long": "goal keeper"
	},{
		"short": "mid",
		"long": "midfielder"
	}],
	"volleyball":[{
		"short": "middle",
		"long": "middle blocker/hitter"
	},{
		"short": "libero",
		"long": "back libero"
	},{
		"short": "setter",
		"long": "setter"
	},{
		"short": "hitter",
		"long": "outside/opposite hitter"
	}],
	"fieldhockey":[{
		"short": "defender",
		"long": "defender"
	},{
		"short": "forward",
		"long": "center forward"
	},{
		"short": "wing",
		"long": "right/left forward"
	},{
		"short": "keeper",
		"long": "goal keeper"
	},{
		"short": "mid",
		"long": "midfielder"
	}],
	"shooting":[{
		"short": "rifle",
		"long": "rifle"
	},{
		"short": "pistol",
		"long": "pistol"
	},{
		"short": "shotgun",
		"long": "shotgun"
	}]
}
